\relax 
\providecommand\babel@aux[2]{}
\@nameuse{bbl@beforestart}
\catcode `"\active 
\babel@aux{russian}{}
\@writefile{toc}{\contentsline {section}{\numberline {1}Введение}{1}{}\protected@file@percent }
\@writefile{toc}{\contentsline {section}{\numberline {2}Формулы}{1}{}\protected@file@percent }
\@writefile{toc}{\contentsline {section}{\numberline {3}Картинки}{1}{}\protected@file@percent }
\@writefile{lof}{\contentsline {figure}{\numberline {1}{\ignorespaces Картинка Китая.}}{1}{}\protected@file@percent }
\newlabel{fig:China}{{1}{1}{}{}{}}
\gdef \@abspage@last{1}
